%TF.GenerationSoftware,Altium Limited,Altium NEXUS,1.1.7 (68)*%
G04 Layer_Color=255*
%FSLAX45Y45*%
%MOMM*%
%TF.FileFunction,Pads,Top*%
%TF.Part,Single*%
G01*
G75*
%TA.AperFunction,SMDPad,CuDef*%
%ADD10R,2.60000X0.95000*%
%ADD11R,0.95000X2.60000*%
%ADD12R,2.10000X2.10000*%
%ADD13O,0.30000X0.85000*%
%ADD14O,0.85000X0.30000*%
%ADD15R,1.65000X2.38000*%
%ADD16R,0.70000X0.25000*%
%ADD17R,0.90000X0.70000*%
%ADD18R,0.70000X0.90000*%
%ADD19R,0.52000X0.52000*%
%ADD20R,0.52000X0.52000*%
%ADD21R,0.45000X0.55000*%
%ADD22R,0.55000X0.45000*%
G04:AMPARAMS|DCode=23|XSize=0.24mm|YSize=0.6mm|CornerRadius=0.0504mm|HoleSize=0mm|Usage=FLASHONLY|Rotation=180.000|XOffset=0mm|YOffset=0mm|HoleType=Round|Shape=RoundedRectangle|*
%AMROUNDEDRECTD23*
21,1,0.24000,0.49920,0,0,180.0*
21,1,0.13920,0.60000,0,0,180.0*
1,1,0.10080,-0.06960,0.24960*
1,1,0.10080,0.06960,0.24960*
1,1,0.10080,0.06960,-0.24960*
1,1,0.10080,-0.06960,-0.24960*
%
%ADD23ROUNDEDRECTD23*%
G04:AMPARAMS|DCode=24|XSize=0.24mm|YSize=0.6mm|CornerRadius=0.0504mm|HoleSize=0mm|Usage=FLASHONLY|Rotation=270.000|XOffset=0mm|YOffset=0mm|HoleType=Round|Shape=RoundedRectangle|*
%AMROUNDEDRECTD24*
21,1,0.24000,0.49920,0,0,270.0*
21,1,0.13920,0.60000,0,0,270.0*
1,1,0.10080,-0.24960,-0.06960*
1,1,0.10080,-0.24960,0.06960*
1,1,0.10080,0.24960,0.06960*
1,1,0.10080,0.24960,-0.06960*
%
%ADD24ROUNDEDRECTD24*%
G04:AMPARAMS|DCode=25|XSize=2.05mm|YSize=2.05mm|CornerRadius=0.05125mm|HoleSize=0mm|Usage=FLASHONLY|Rotation=180.000|XOffset=0mm|YOffset=0mm|HoleType=Round|Shape=RoundedRectangle|*
%AMROUNDEDRECTD25*
21,1,2.05000,1.94750,0,0,180.0*
21,1,1.94750,2.05000,0,0,180.0*
1,1,0.10250,-0.97375,0.97375*
1,1,0.10250,0.97375,0.97375*
1,1,0.10250,0.97375,-0.97375*
1,1,0.10250,-0.97375,-0.97375*
%
%ADD25ROUNDEDRECTD25*%
%ADD26R,0.95000X1.35000*%
%ADD27R,0.65000X0.90000*%
%ADD28R,0.60000X0.90000*%
%ADD29O,0.60000X1.90000*%
%ADD30R,1.20000X0.60000*%
%ADD31R,1.80000X1.80000*%
%ADD32O,0.65000X0.25000*%
%ADD33O,0.25000X0.65000*%
%ADD34R,1.80000X1.00000*%
%ADD35R,5.15000X5.15000*%
%ADD36O,0.25000X0.80000*%
%ADD37O,0.80000X0.25000*%
%ADD38R,0.97000X1.37000*%
%ADD39O,1.12500X0.22500*%
%ADD40O,1.11200X0.25000*%
%ADD41O,1.13700X0.20000*%
%ADD42O,1.09800X0.27500*%
%ADD43O,1.08200X0.30000*%
%ADD44O,0.76000X0.50000*%
%ADD45O,1.06300X0.32500*%
%ADD46O,1.04000X0.35000*%
%ADD47O,1.01300X0.37500*%
%ADD48O,0.98100X0.40000*%
%ADD49O,0.94300X0.42500*%
%ADD50O,0.89700X0.45000*%
%ADD51O,0.86500X0.46500*%
%ADD52O,0.84000X0.47500*%
%ADD53O,0.80000X0.49000*%
%ADD54O,0.63000X0.52000*%
%ADD55O,0.71000X0.51000*%
%ADD56C,0.52500*%
%ADD57R,1.00000X1.40000*%
%ADD58R,1.00000X1.80000*%
%ADD59O,0.35000X1.25000*%
%ADD60O,0.22500X1.12500*%
%ADD61O,0.25000X1.11200*%
%ADD62O,0.20000X1.13700*%
%ADD63O,0.27500X1.09800*%
%ADD64O,0.30000X1.08200*%
%ADD65O,0.50000X0.76000*%
%ADD66O,0.32500X1.06300*%
%ADD67O,0.35000X1.04000*%
%ADD68O,0.37500X1.01300*%
%ADD69O,0.40000X0.98100*%
%ADD70O,0.42500X0.94300*%
%ADD71O,0.45000X0.89700*%
%ADD72O,0.46500X0.86500*%
%ADD73O,0.47500X0.84000*%
%ADD74O,0.49000X0.80000*%
%ADD75O,0.52000X0.63000*%
%ADD76O,0.51000X0.71000*%
%ADD77C,0.60000*%
%ADD78R,0.65000X0.70000*%
%ADD79R,2.79000X0.74000*%
%ADD80R,1.40000X1.15000*%
%ADD81R,0.90000X1.00000*%
G04:AMPARAMS|DCode=82|XSize=0.9mm|YSize=2mm|CornerRadius=0.0495mm|HoleSize=0mm|Usage=FLASHONLY|Rotation=180.000|XOffset=0mm|YOffset=0mm|HoleType=Round|Shape=RoundedRectangle|*
%AMROUNDEDRECTD82*
21,1,0.90000,1.90100,0,0,180.0*
21,1,0.80100,2.00000,0,0,180.0*
1,1,0.09900,-0.40050,0.95050*
1,1,0.09900,0.40050,0.95050*
1,1,0.09900,0.40050,-0.95050*
1,1,0.09900,-0.40050,-0.95050*
%
%ADD82ROUNDEDRECTD82*%
G04:AMPARAMS|DCode=83|XSize=0.25mm|YSize=0.5mm|CornerRadius=0.05mm|HoleSize=0mm|Usage=FLASHONLY|Rotation=270.000|XOffset=0mm|YOffset=0mm|HoleType=Round|Shape=RoundedRectangle|*
%AMROUNDEDRECTD83*
21,1,0.25000,0.40000,0,0,270.0*
21,1,0.15000,0.50000,0,0,270.0*
1,1,0.10000,-0.20000,-0.07500*
1,1,0.10000,-0.20000,0.07500*
1,1,0.10000,0.20000,0.07500*
1,1,0.10000,0.20000,-0.07500*
%
%ADD83ROUNDEDRECTD83*%
G04:AMPARAMS|DCode=84|XSize=0.64mm|YSize=0.64mm|CornerRadius=0.0032mm|HoleSize=0mm|Usage=FLASHONLY|Rotation=315.000|XOffset=0mm|YOffset=0mm|HoleType=Round|Shape=RoundedRectangle|*
%AMROUNDEDRECTD84*
21,1,0.64000,0.63360,0,0,315.0*
21,1,0.63360,0.64000,0,0,315.0*
1,1,0.00640,0.00000,-0.44803*
1,1,0.00640,-0.44803,0.00000*
1,1,0.00640,0.00000,0.44803*
1,1,0.00640,0.44803,0.00000*
%
%ADD84ROUNDEDRECTD84*%
G04:AMPARAMS|DCode=85|XSize=0.745mm|YSize=0.745mm|CornerRadius=0.00373mm|HoleSize=0mm|Usage=FLASHONLY|Rotation=315.000|XOffset=0mm|YOffset=0mm|HoleType=Round|Shape=RoundedRectangle|*
%AMROUNDEDRECTD85*
21,1,0.74500,0.73755,0,0,315.0*
21,1,0.73755,0.74500,0,0,315.0*
1,1,0.00745,0.00000,-0.52153*
1,1,0.00745,-0.52153,0.00000*
1,1,0.00745,0.00000,0.52153*
1,1,0.00745,0.52153,0.00000*
%
%ADD85ROUNDEDRECTD85*%
G04:AMPARAMS|DCode=86|XSize=0.525mm|YSize=0.968mm|CornerRadius=0.00262mm|HoleSize=0mm|Usage=FLASHONLY|Rotation=90.000|XOffset=0mm|YOffset=0mm|HoleType=Round|Shape=RoundedRectangle|*
%AMROUNDEDRECTD86*
21,1,0.52500,0.96275,0,0,90.0*
21,1,0.51975,0.96800,0,0,90.0*
1,1,0.00525,0.48138,0.25988*
1,1,0.00525,0.48138,-0.25988*
1,1,0.00525,-0.48138,-0.25988*
1,1,0.00525,-0.48138,0.25988*
%
%ADD86ROUNDEDRECTD86*%
G04:AMPARAMS|DCode=87|XSize=0.64mm|YSize=0.64mm|CornerRadius=0.0032mm|HoleSize=0mm|Usage=FLASHONLY|Rotation=225.000|XOffset=0mm|YOffset=0mm|HoleType=Round|Shape=RoundedRectangle|*
%AMROUNDEDRECTD87*
21,1,0.64000,0.63360,0,0,225.0*
21,1,0.63360,0.64000,0,0,225.0*
1,1,0.00640,-0.44803,0.00000*
1,1,0.00640,0.00000,0.44803*
1,1,0.00640,0.44803,0.00000*
1,1,0.00640,0.00000,-0.44803*
%
%ADD87ROUNDEDRECTD87*%
G04:AMPARAMS|DCode=88|XSize=0.745mm|YSize=0.745mm|CornerRadius=0.00373mm|HoleSize=0mm|Usage=FLASHONLY|Rotation=225.000|XOffset=0mm|YOffset=0mm|HoleType=Round|Shape=RoundedRectangle|*
%AMROUNDEDRECTD88*
21,1,0.74500,0.73755,0,0,225.0*
21,1,0.73755,0.74500,0,0,225.0*
1,1,0.00745,-0.52153,0.00000*
1,1,0.00745,0.00000,0.52153*
1,1,0.00745,0.52153,0.00000*
1,1,0.00745,0.00000,-0.52153*
%
%ADD88ROUNDEDRECTD88*%
G04:AMPARAMS|DCode=89|XSize=2.65mm|YSize=0.6mm|CornerRadius=0.003mm|HoleSize=0mm|Usage=FLASHONLY|Rotation=180.000|XOffset=0mm|YOffset=0mm|HoleType=Round|Shape=RoundedRectangle|*
%AMROUNDEDRECTD89*
21,1,2.65000,0.59400,0,0,180.0*
21,1,2.64400,0.60000,0,0,180.0*
1,1,0.00600,-1.32200,0.29700*
1,1,0.00600,1.32200,0.29700*
1,1,0.00600,1.32200,-0.29700*
1,1,0.00600,-1.32200,-0.29700*
%
%ADD89ROUNDEDRECTD89*%
G04:AMPARAMS|DCode=90|XSize=2.79mm|YSize=0.87mm|CornerRadius=0.00435mm|HoleSize=0mm|Usage=FLASHONLY|Rotation=270.000|XOffset=0mm|YOffset=0mm|HoleType=Round|Shape=RoundedRectangle|*
%AMROUNDEDRECTD90*
21,1,2.79000,0.86130,0,0,270.0*
21,1,2.78130,0.87000,0,0,270.0*
1,1,0.00870,-0.43065,-1.39065*
1,1,0.00870,-0.43065,1.39065*
1,1,0.00870,0.43065,1.39065*
1,1,0.00870,0.43065,-1.39065*
%
%ADD90ROUNDEDRECTD90*%
G04:AMPARAMS|DCode=91|XSize=0.91mm|YSize=0.775mm|CornerRadius=0.00388mm|HoleSize=0mm|Usage=FLASHONLY|Rotation=180.000|XOffset=0mm|YOffset=0mm|HoleType=Round|Shape=RoundedRectangle|*
%AMROUNDEDRECTD91*
21,1,0.91000,0.76725,0,0,180.0*
21,1,0.90225,0.77500,0,0,180.0*
1,1,0.00775,-0.45112,0.38362*
1,1,0.00775,0.45112,0.38362*
1,1,0.00775,0.45112,-0.38362*
1,1,0.00775,-0.45112,-0.38362*
%
%ADD91ROUNDEDRECTD91*%
G04:AMPARAMS|DCode=92|XSize=0.785mm|YSize=0.785mm|CornerRadius=0.00392mm|HoleSize=0mm|Usage=FLASHONLY|Rotation=315.000|XOffset=0mm|YOffset=0mm|HoleType=Round|Shape=RoundedRectangle|*
%AMROUNDEDRECTD92*
21,1,0.78500,0.77715,0,0,315.0*
21,1,0.77715,0.78500,0,0,315.0*
1,1,0.00785,0.00000,-0.54953*
1,1,0.00785,-0.54953,0.00000*
1,1,0.00785,0.00000,0.54953*
1,1,0.00785,0.54953,0.00000*
%
%ADD92ROUNDEDRECTD92*%
G04:AMPARAMS|DCode=93|XSize=0.85mm|YSize=0.85mm|CornerRadius=0.00425mm|HoleSize=0mm|Usage=FLASHONLY|Rotation=315.000|XOffset=0mm|YOffset=0mm|HoleType=Round|Shape=RoundedRectangle|*
%AMROUNDEDRECTD93*
21,1,0.85000,0.84150,0,0,315.0*
21,1,0.84150,0.85000,0,0,315.0*
1,1,0.00850,0.00000,-0.59503*
1,1,0.00850,-0.59503,0.00000*
1,1,0.00850,0.00000,0.59503*
1,1,0.00850,0.59503,0.00000*
%
%ADD93ROUNDEDRECTD93*%
G04:AMPARAMS|DCode=94|XSize=0.85mm|YSize=0.85mm|CornerRadius=0.00425mm|HoleSize=0mm|Usage=FLASHONLY|Rotation=45.000|XOffset=0mm|YOffset=0mm|HoleType=Round|Shape=RoundedRectangle|*
%AMROUNDEDRECTD94*
21,1,0.85000,0.84150,0,0,45.0*
21,1,0.84150,0.85000,0,0,45.0*
1,1,0.00850,0.59503,0.00000*
1,1,0.00850,0.00000,-0.59503*
1,1,0.00850,-0.59503,0.00000*
1,1,0.00850,0.00000,0.59503*
%
%ADD94ROUNDEDRECTD94*%
G04:AMPARAMS|DCode=95|XSize=0.785mm|YSize=0.785mm|CornerRadius=0.00392mm|HoleSize=0mm|Usage=FLASHONLY|Rotation=45.000|XOffset=0mm|YOffset=0mm|HoleType=Round|Shape=RoundedRectangle|*
%AMROUNDEDRECTD95*
21,1,0.78500,0.77715,0,0,45.0*
21,1,0.77715,0.78500,0,0,45.0*
1,1,0.00785,0.54953,0.00000*
1,1,0.00785,0.00000,-0.54953*
1,1,0.00785,-0.54953,0.00000*
1,1,0.00785,0.00000,0.54953*
%
%ADD95ROUNDEDRECTD95*%
%TA.AperFunction,ConnectorPad*%
%ADD96R,2.35500X14.81500*%
%TA.AperFunction,SMDPad,CuDef*%
%ADD97R,0.20000X0.20000*%
%TA.AperFunction,ConnectorPad*%
%ADD98R,2.35500X11.06000*%
%TA.AperFunction,SMDPad,CuDef*%
%ADD99R,0.58000X0.50000*%
%ADD100R,0.80000X0.75000*%
%ADD101R,0.49000X0.52000*%
%ADD102R,0.52000X0.49000*%
%TA.AperFunction,ComponentPad*%
%ADD113C,1.52000*%
%ADD114R,1.52000X1.52000*%
%ADD115R,1.52000X1.52000*%
%ADD116C,5.00000*%
D10*
X3205906Y2110000D02*
D03*
Y2390000D02*
D03*
X2245700Y931250D02*
D03*
Y651250D02*
D03*
D11*
X2710000Y2245000D02*
D03*
X2990000D02*
D03*
D12*
X3762600Y1288900D02*
D03*
D13*
X3665100Y1471400D02*
D03*
X3730100D02*
D03*
X3795100D02*
D03*
X3860100D02*
D03*
Y1106400D02*
D03*
X3795100D02*
D03*
X3730100D02*
D03*
X3665100D02*
D03*
D14*
X3945100Y1386400D02*
D03*
Y1321400D02*
D03*
Y1256400D02*
D03*
Y1191400D02*
D03*
X3580100D02*
D03*
Y1256400D02*
D03*
Y1321400D02*
D03*
Y1386400D02*
D03*
D15*
X3470000Y1700000D02*
D03*
D16*
X3610000Y1625000D02*
D03*
Y1675000D02*
D03*
Y1725000D02*
D03*
Y1775000D02*
D03*
X3330000Y1625000D02*
D03*
Y1675000D02*
D03*
Y1725000D02*
D03*
Y1775000D02*
D03*
D17*
X3203250Y1099998D02*
D03*
Y959998D02*
D03*
D18*
X2524501Y545001D02*
D03*
X2664501D02*
D03*
X3230000Y1760000D02*
D03*
X3090000D02*
D03*
X3820000Y618959D02*
D03*
X3680000D02*
D03*
D19*
X2552109Y737500D02*
D03*
X2632109D02*
D03*
X3360000Y2713557D02*
D03*
X3440000D02*
D03*
X322426Y1180000D02*
D03*
X402426D02*
D03*
X346789Y1730000D02*
D03*
X426789D02*
D03*
X340000Y930000D02*
D03*
X260000D02*
D03*
X3783751Y1743200D02*
D03*
X3703751D02*
D03*
X1020000Y1120000D02*
D03*
X1100000D02*
D03*
X1310000Y1933000D02*
D03*
X1390000D02*
D03*
X3482600Y1937500D02*
D03*
X3562600D02*
D03*
X3366668Y2800000D02*
D03*
X3446668D02*
D03*
X4072600Y1937500D02*
D03*
X4152600D02*
D03*
X2570000Y1885900D02*
D03*
X2650000D02*
D03*
X2490000Y1723200D02*
D03*
X2570000D02*
D03*
D20*
X3100000Y909363D02*
D03*
Y989363D02*
D03*
X2921500Y1157500D02*
D03*
Y1237500D02*
D03*
X2885500Y2628485D02*
D03*
Y2708485D02*
D03*
Y2538485D02*
D03*
Y2458485D02*
D03*
X1630000Y2702904D02*
D03*
Y2622904D02*
D03*
X316789Y2414572D02*
D03*
Y2494572D02*
D03*
X2200000Y2702904D02*
D03*
Y2622904D02*
D03*
X1910000Y1603200D02*
D03*
Y1683200D02*
D03*
X1720000Y2702904D02*
D03*
Y2622904D02*
D03*
X2175700Y1670000D02*
D03*
Y1750000D02*
D03*
X2025700Y1670000D02*
D03*
Y1750000D02*
D03*
X1810000Y974363D02*
D03*
Y894363D02*
D03*
X3200687Y1860000D02*
D03*
Y1940000D02*
D03*
X2490000Y2065900D02*
D03*
Y1985900D02*
D03*
D21*
X3170950Y1190000D02*
D03*
X3260950D02*
D03*
X3005000D02*
D03*
X3095000D02*
D03*
X1269290Y680000D02*
D03*
X1359290D02*
D03*
X1269290Y410000D02*
D03*
X1359290D02*
D03*
X1269290Y590000D02*
D03*
X1359290D02*
D03*
X1269290Y500000D02*
D03*
X1359290D02*
D03*
X3965000Y1570000D02*
D03*
X3875000D02*
D03*
X3150592Y1653200D02*
D03*
X3240593D02*
D03*
X3239941Y1570000D02*
D03*
X3149941D02*
D03*
X2225000Y2992200D02*
D03*
X2315000D02*
D03*
X3785000Y2287600D02*
D03*
X3875000D02*
D03*
X3830000Y1660000D02*
D03*
X3740000D02*
D03*
X212863Y2860000D02*
D03*
X302863D02*
D03*
X1105000Y1210000D02*
D03*
X1015000D02*
D03*
D22*
X3007700Y1365000D02*
D03*
Y1275000D02*
D03*
X1820000Y425000D02*
D03*
Y515000D02*
D03*
X1650000Y425000D02*
D03*
Y515000D02*
D03*
X1820000Y585000D02*
D03*
Y675000D02*
D03*
X1510000Y1595000D02*
D03*
Y1685000D02*
D03*
X1424000Y1685000D02*
D03*
Y1595000D02*
D03*
X1650000Y585000D02*
D03*
Y675000D02*
D03*
X504200Y2342700D02*
D03*
Y2432700D02*
D03*
X590000Y2342700D02*
D03*
Y2432700D02*
D03*
X3189600Y2621326D02*
D03*
Y2531326D02*
D03*
X3277500Y2621326D02*
D03*
Y2531326D02*
D03*
X4240000Y2905000D02*
D03*
Y2815000D02*
D03*
X231739Y2499572D02*
D03*
Y2409572D02*
D03*
X4265000Y1837500D02*
D03*
Y1927500D02*
D03*
X2753700Y1835900D02*
D03*
Y1925900D02*
D03*
D23*
X2761500Y1212500D02*
D03*
Y882500D02*
D03*
X2711500Y1212500D02*
D03*
X2611500D02*
D03*
X2661500D02*
D03*
X2561500D02*
D03*
X2711500Y882500D02*
D03*
X2611500D02*
D03*
X2661500D02*
D03*
X2561500D02*
D03*
D24*
X2826500Y1147500D02*
D03*
Y997500D02*
D03*
Y1097500D02*
D03*
Y1047500D02*
D03*
Y947500D02*
D03*
X2496500Y1147500D02*
D03*
Y1097500D02*
D03*
Y1047500D02*
D03*
Y997500D02*
D03*
Y947500D02*
D03*
D25*
X2661500Y1047500D02*
D03*
D26*
X4230000Y1080000D02*
D03*
X4070000D02*
D03*
X900000Y1885900D02*
D03*
X1060000D02*
D03*
X912700Y2063200D02*
D03*
X1072700D02*
D03*
D27*
X3352501Y937500D02*
D03*
X3542500Y697500D02*
D03*
X3447501D02*
D03*
X3352501D02*
D03*
D28*
X3542500Y937500D02*
D03*
D29*
X1310500Y857000D02*
D03*
X1437500D02*
D03*
X1564500D02*
D03*
X1691500D02*
D03*
X1310500Y1327000D02*
D03*
X1437500D02*
D03*
X1564500D02*
D03*
X1691500D02*
D03*
D30*
X4230000Y2055000D02*
D03*
X4230000Y2245000D02*
D03*
X4050000Y2150000D02*
D03*
D31*
X3130000Y2853200D02*
D03*
D32*
X3277500Y2928200D02*
D03*
Y2878200D02*
D03*
Y2828200D02*
D03*
Y2778200D02*
D03*
X2982500D02*
D03*
Y2828200D02*
D03*
X2982500Y2878200D02*
D03*
Y2928200D02*
D03*
D33*
X3205000Y2705700D02*
D03*
X3155000D02*
D03*
X3105000D02*
D03*
X3055000D02*
D03*
Y3000700D02*
D03*
X3105000D02*
D03*
X3155000Y3000700D02*
D03*
X3205000D02*
D03*
D34*
X2740000Y2456685D02*
D03*
Y2706685D02*
D03*
D35*
X1900700Y2185900D02*
D03*
D36*
X2175700Y1845900D02*
D03*
X2125700D02*
D03*
X2075700D02*
D03*
X2025700D02*
D03*
X1975700D02*
D03*
X1925700D02*
D03*
X1875700D02*
D03*
X1825700D02*
D03*
X1775700D02*
D03*
X1725700D02*
D03*
X1675700D02*
D03*
X1625700D02*
D03*
Y2525900D02*
D03*
X1675700D02*
D03*
X1725700D02*
D03*
X1775700D02*
D03*
X1825700D02*
D03*
X1875700D02*
D03*
X1925700D02*
D03*
X1975700D02*
D03*
X2025700D02*
D03*
X2075700D02*
D03*
X2125700D02*
D03*
X2175700D02*
D03*
D37*
X1560700Y1910900D02*
D03*
Y1960900D02*
D03*
Y2010900D02*
D03*
Y2060900D02*
D03*
Y2110900D02*
D03*
Y2160900D02*
D03*
Y2210900D02*
D03*
Y2260900D02*
D03*
Y2310900D02*
D03*
Y2360900D02*
D03*
Y2410900D02*
D03*
Y2460900D02*
D03*
X2240700D02*
D03*
Y2410900D02*
D03*
Y2360900D02*
D03*
Y2310900D02*
D03*
Y2260900D02*
D03*
Y2210900D02*
D03*
Y2160900D02*
D03*
Y2110900D02*
D03*
Y2060900D02*
D03*
Y2010900D02*
D03*
Y1960900D02*
D03*
Y1910900D02*
D03*
D38*
X1374200Y2063200D02*
D03*
X1220200D02*
D03*
D39*
X600000Y781250D02*
D03*
Y743750D02*
D03*
X390000Y781250D02*
D03*
Y743750D02*
D03*
X180000Y781250D02*
D03*
Y743750D02*
D03*
X600000Y1918750D02*
D03*
Y1881250D02*
D03*
X180000D02*
D03*
Y1918750D02*
D03*
X390000Y1881250D02*
D03*
Y1918750D02*
D03*
X600000Y1408750D02*
D03*
Y1371250D02*
D03*
X180000D02*
D03*
Y1408750D02*
D03*
X390000Y1371250D02*
D03*
Y1408750D02*
D03*
X3800000Y2978750D02*
D03*
Y2941250D02*
D03*
X1950000Y943113D02*
D03*
Y905613D02*
D03*
X2130700Y452999D02*
D03*
Y490500D02*
D03*
X2315000Y487500D02*
D03*
Y450000D02*
D03*
D40*
X600000Y782500D02*
D03*
Y742500D02*
D03*
X390000Y782500D02*
D03*
Y742500D02*
D03*
X180000Y782500D02*
D03*
Y742500D02*
D03*
X600000Y1920000D02*
D03*
Y1880000D02*
D03*
X180000D02*
D03*
Y1920000D02*
D03*
X390000Y1880000D02*
D03*
Y1920000D02*
D03*
X600000Y1410000D02*
D03*
Y1370000D02*
D03*
X180000D02*
D03*
Y1410000D02*
D03*
X390000Y1370000D02*
D03*
Y1410000D02*
D03*
X3800000Y2980000D02*
D03*
Y2940000D02*
D03*
X1950000Y944363D02*
D03*
Y904363D02*
D03*
X2130700Y451750D02*
D03*
Y491750D02*
D03*
X2315000Y488750D02*
D03*
Y448750D02*
D03*
D41*
X600000Y780000D02*
D03*
Y745000D02*
D03*
X390000Y780000D02*
D03*
Y745000D02*
D03*
X180000Y780000D02*
D03*
Y745000D02*
D03*
X600000Y1917500D02*
D03*
Y1882500D02*
D03*
X180000D02*
D03*
Y1917500D02*
D03*
X390000Y1882500D02*
D03*
Y1917500D02*
D03*
X600000Y1407500D02*
D03*
Y1372500D02*
D03*
X180000D02*
D03*
Y1407500D02*
D03*
X390000Y1372500D02*
D03*
Y1407500D02*
D03*
X3800000Y2977501D02*
D03*
Y2942500D02*
D03*
X1950000Y941863D02*
D03*
Y906863D02*
D03*
X2130700Y454250D02*
D03*
Y489250D02*
D03*
X2315000Y486250D02*
D03*
Y451250D02*
D03*
D42*
X600000Y783750D02*
D03*
Y741250D02*
D03*
X390000Y783750D02*
D03*
Y741250D02*
D03*
X180000Y783750D02*
D03*
Y741250D02*
D03*
X600000Y1921250D02*
D03*
Y1878750D02*
D03*
X180000D02*
D03*
Y1921250D02*
D03*
X390000Y1878750D02*
D03*
Y1921250D02*
D03*
X600000Y1411250D02*
D03*
Y1368750D02*
D03*
X180000D02*
D03*
Y1411250D02*
D03*
X390000Y1368750D02*
D03*
Y1411250D02*
D03*
X3800000Y2981250D02*
D03*
Y2938750D02*
D03*
X1950000Y945613D02*
D03*
Y903113D02*
D03*
X2130700Y450499D02*
D03*
Y493000D02*
D03*
X2315000Y490000D02*
D03*
Y447500D02*
D03*
D43*
X600000Y785000D02*
D03*
Y740000D02*
D03*
X390000Y785000D02*
D03*
Y740000D02*
D03*
X180000Y785000D02*
D03*
Y740000D02*
D03*
X600000Y1922500D02*
D03*
Y1877500D02*
D03*
X180000D02*
D03*
Y1922500D02*
D03*
X390000Y1877500D02*
D03*
Y1922500D02*
D03*
X600000Y1412500D02*
D03*
Y1367500D02*
D03*
X180000D02*
D03*
Y1412500D02*
D03*
X390000Y1367500D02*
D03*
Y1412500D02*
D03*
X3800000Y2982500D02*
D03*
Y2937500D02*
D03*
X1950000Y946863D02*
D03*
Y901863D02*
D03*
X2130700Y449250D02*
D03*
Y494250D02*
D03*
X2315000Y491250D02*
D03*
Y446250D02*
D03*
D44*
X600000Y795000D02*
D03*
Y730000D02*
D03*
X390000Y795000D02*
D03*
Y730000D02*
D03*
X180000Y795000D02*
D03*
Y730000D02*
D03*
X600000Y1932500D02*
D03*
Y1867500D02*
D03*
X180000D02*
D03*
Y1932500D02*
D03*
X390000Y1867500D02*
D03*
Y1932500D02*
D03*
X600000Y1422500D02*
D03*
Y1357500D02*
D03*
X180000D02*
D03*
Y1422500D02*
D03*
X390000Y1357500D02*
D03*
Y1422500D02*
D03*
X3800000Y2992500D02*
D03*
Y2927500D02*
D03*
X1950000Y956863D02*
D03*
Y891863D02*
D03*
X2130700Y439250D02*
D03*
Y504250D02*
D03*
X2315000Y501250D02*
D03*
Y436250D02*
D03*
D45*
X600000Y786250D02*
D03*
Y738750D02*
D03*
X390000Y786250D02*
D03*
Y738750D02*
D03*
X180000Y786250D02*
D03*
Y738750D02*
D03*
X600000Y1923750D02*
D03*
Y1876250D02*
D03*
X180000D02*
D03*
Y1923750D02*
D03*
X390000Y1876250D02*
D03*
Y1923750D02*
D03*
X600000Y1413750D02*
D03*
Y1366250D02*
D03*
X180000D02*
D03*
Y1413750D02*
D03*
X390000Y1366250D02*
D03*
Y1413750D02*
D03*
X3800000Y2983750D02*
D03*
Y2936250D02*
D03*
X1950000Y948113D02*
D03*
Y900613D02*
D03*
X2130700Y448000D02*
D03*
Y495500D02*
D03*
X2315000Y492500D02*
D03*
Y445000D02*
D03*
D46*
X600000Y787500D02*
D03*
Y737500D02*
D03*
X390000Y787500D02*
D03*
Y737500D02*
D03*
X180000Y787500D02*
D03*
Y737500D02*
D03*
X600000Y1925000D02*
D03*
Y1875000D02*
D03*
X180000D02*
D03*
Y1925000D02*
D03*
X390000Y1875000D02*
D03*
Y1925000D02*
D03*
X600000Y1415000D02*
D03*
Y1365000D02*
D03*
X180000D02*
D03*
Y1415000D02*
D03*
X390000Y1365000D02*
D03*
Y1415000D02*
D03*
X3800000Y2985000D02*
D03*
Y2935000D02*
D03*
X1950000Y949363D02*
D03*
Y899363D02*
D03*
X2130700Y446749D02*
D03*
Y496750D02*
D03*
X2315000Y493750D02*
D03*
Y443750D02*
D03*
D47*
X600000Y788750D02*
D03*
Y736250D02*
D03*
X390000Y788750D02*
D03*
Y736250D02*
D03*
X180000Y788750D02*
D03*
Y736250D02*
D03*
X600000Y1926250D02*
D03*
Y1873750D02*
D03*
X180000D02*
D03*
Y1926250D02*
D03*
X390000Y1873750D02*
D03*
Y1926250D02*
D03*
X600000Y1416250D02*
D03*
Y1363750D02*
D03*
X180000D02*
D03*
Y1416250D02*
D03*
X390000Y1363750D02*
D03*
Y1416250D02*
D03*
X3800000Y2986250D02*
D03*
Y2933750D02*
D03*
X1950000Y950613D02*
D03*
Y898113D02*
D03*
X2130700Y445500D02*
D03*
Y498000D02*
D03*
X2315000Y495000D02*
D03*
Y442500D02*
D03*
D48*
X600000Y790000D02*
D03*
Y735000D02*
D03*
X390000Y790000D02*
D03*
Y735000D02*
D03*
X180000Y790000D02*
D03*
Y735000D02*
D03*
X600000Y1927500D02*
D03*
Y1872500D02*
D03*
X180000D02*
D03*
Y1927500D02*
D03*
X390000Y1872500D02*
D03*
Y1927500D02*
D03*
X600000Y1417500D02*
D03*
Y1362500D02*
D03*
X180000D02*
D03*
Y1417500D02*
D03*
X390000Y1362500D02*
D03*
Y1417500D02*
D03*
X3800000Y2987500D02*
D03*
Y2932500D02*
D03*
X1950000Y951863D02*
D03*
Y896863D02*
D03*
X2130700Y444250D02*
D03*
Y499249D02*
D03*
X2315000Y496250D02*
D03*
Y441250D02*
D03*
D49*
X600000Y791250D02*
D03*
Y733750D02*
D03*
X390000Y791250D02*
D03*
Y733750D02*
D03*
X180000Y791250D02*
D03*
Y733750D02*
D03*
X600000Y1928750D02*
D03*
Y1871250D02*
D03*
X180000D02*
D03*
Y1928750D02*
D03*
X390000Y1871250D02*
D03*
Y1928750D02*
D03*
X600000Y1418750D02*
D03*
Y1361250D02*
D03*
X180000D02*
D03*
Y1418750D02*
D03*
X390000Y1361250D02*
D03*
Y1418750D02*
D03*
X3800000Y2988750D02*
D03*
Y2931250D02*
D03*
X1950000Y953113D02*
D03*
Y895613D02*
D03*
X2130700Y443000D02*
D03*
Y500500D02*
D03*
X2315000Y497500D02*
D03*
Y440000D02*
D03*
D50*
X600000Y792500D02*
D03*
Y732500D02*
D03*
X390000Y792500D02*
D03*
Y732500D02*
D03*
X180000Y792500D02*
D03*
Y732500D02*
D03*
X600000Y1930000D02*
D03*
Y1870000D02*
D03*
X180000D02*
D03*
Y1930000D02*
D03*
X390000Y1870000D02*
D03*
Y1930000D02*
D03*
X600000Y1420000D02*
D03*
Y1360000D02*
D03*
X180000D02*
D03*
Y1420000D02*
D03*
X390000Y1360000D02*
D03*
Y1420000D02*
D03*
X3800000Y2990000D02*
D03*
Y2930000D02*
D03*
X1950000Y954363D02*
D03*
Y894363D02*
D03*
X2130700Y441750D02*
D03*
Y501750D02*
D03*
X2315000Y498750D02*
D03*
Y438750D02*
D03*
D51*
X600000Y793250D02*
D03*
Y731750D02*
D03*
X390000Y793250D02*
D03*
Y731750D02*
D03*
X180000Y793250D02*
D03*
Y731750D02*
D03*
X600000Y1930750D02*
D03*
Y1869250D02*
D03*
X180000D02*
D03*
Y1930750D02*
D03*
X390000Y1869250D02*
D03*
Y1930750D02*
D03*
X600000Y1420750D02*
D03*
Y1359250D02*
D03*
X180000D02*
D03*
Y1420750D02*
D03*
X390000Y1359250D02*
D03*
Y1420750D02*
D03*
X3800000Y2990750D02*
D03*
Y2929250D02*
D03*
X1950000Y955113D02*
D03*
Y893613D02*
D03*
X2130700Y441000D02*
D03*
Y502500D02*
D03*
X2315000Y499500D02*
D03*
Y438000D02*
D03*
D52*
X600000Y793750D02*
D03*
Y731250D02*
D03*
X390000Y793750D02*
D03*
Y731250D02*
D03*
X180000Y793750D02*
D03*
Y731250D02*
D03*
X600000Y1931250D02*
D03*
Y1868750D02*
D03*
X180000D02*
D03*
Y1931250D02*
D03*
X390000Y1868750D02*
D03*
Y1931250D02*
D03*
X600000Y1421250D02*
D03*
Y1358750D02*
D03*
X180000D02*
D03*
Y1421250D02*
D03*
X390000Y1358750D02*
D03*
Y1421250D02*
D03*
X3800000Y2991250D02*
D03*
Y2928750D02*
D03*
X1950000Y955613D02*
D03*
Y893113D02*
D03*
X2130700Y440500D02*
D03*
Y502999D02*
D03*
X2315000Y500000D02*
D03*
Y437500D02*
D03*
D53*
X600000Y794500D02*
D03*
Y730500D02*
D03*
X390000Y794500D02*
D03*
Y730500D02*
D03*
X180000Y794500D02*
D03*
Y730500D02*
D03*
X600000Y1932000D02*
D03*
Y1868000D02*
D03*
X180000D02*
D03*
Y1932000D02*
D03*
X390000Y1868000D02*
D03*
Y1932000D02*
D03*
X600000Y1422000D02*
D03*
Y1358000D02*
D03*
X180000D02*
D03*
Y1422000D02*
D03*
X390000Y1358000D02*
D03*
Y1422000D02*
D03*
X3800000Y2992000D02*
D03*
Y2928000D02*
D03*
X1950000Y956363D02*
D03*
Y892363D02*
D03*
X2130700Y439750D02*
D03*
Y503750D02*
D03*
X2315000Y500750D02*
D03*
Y436750D02*
D03*
D54*
X600000Y796000D02*
D03*
Y729000D02*
D03*
X390000Y796000D02*
D03*
Y729000D02*
D03*
X180000Y796000D02*
D03*
Y729000D02*
D03*
X600000Y1933500D02*
D03*
Y1866500D02*
D03*
X180000D02*
D03*
Y1933500D02*
D03*
X390000Y1866500D02*
D03*
Y1933500D02*
D03*
X600000Y1423500D02*
D03*
Y1356500D02*
D03*
X180000D02*
D03*
Y1423500D02*
D03*
X390000Y1356500D02*
D03*
Y1423500D02*
D03*
X3800000Y2993500D02*
D03*
Y2926500D02*
D03*
X1950000Y957863D02*
D03*
Y890863D02*
D03*
X2130700Y438250D02*
D03*
Y505250D02*
D03*
X2315000Y502250D02*
D03*
Y435250D02*
D03*
D55*
X600000Y795500D02*
D03*
Y729500D02*
D03*
X390000Y795500D02*
D03*
Y729500D02*
D03*
X180000Y795500D02*
D03*
Y729500D02*
D03*
X600000Y1933000D02*
D03*
Y1867000D02*
D03*
X180000D02*
D03*
Y1933000D02*
D03*
X390000Y1867000D02*
D03*
Y1933000D02*
D03*
X600000Y1423000D02*
D03*
Y1357000D02*
D03*
X180000D02*
D03*
Y1423000D02*
D03*
X390000Y1357000D02*
D03*
Y1423000D02*
D03*
X3800000Y2993000D02*
D03*
Y2927000D02*
D03*
X1950000Y957363D02*
D03*
Y891363D02*
D03*
X2130700Y438750D02*
D03*
Y504749D02*
D03*
X2315000Y501750D02*
D03*
Y435750D02*
D03*
D56*
X600000Y796250D02*
D03*
Y728750D02*
D03*
X390000Y796250D02*
D03*
Y728750D02*
D03*
X180000Y796250D02*
D03*
Y728750D02*
D03*
X600000Y1933750D02*
D03*
Y1866250D02*
D03*
X180000D02*
D03*
Y1933750D02*
D03*
X390000Y1866250D02*
D03*
Y1933750D02*
D03*
X600000Y1423750D02*
D03*
Y1356250D02*
D03*
X180000D02*
D03*
Y1423750D02*
D03*
X390000Y1356250D02*
D03*
Y1423750D02*
D03*
X3800000Y2993750D02*
D03*
Y2926250D02*
D03*
X968950Y130000D02*
D03*
X901450D02*
D03*
X573750Y980000D02*
D03*
X641250D02*
D03*
X1950000Y958113D02*
D03*
Y890613D02*
D03*
X2130700Y438000D02*
D03*
Y505499D02*
D03*
X2315000Y502500D02*
D03*
Y435000D02*
D03*
X3481251Y463099D02*
D03*
X3413751D02*
D03*
X3676251D02*
D03*
X3743751D02*
D03*
X3253750Y1430000D02*
D03*
X3186250D02*
D03*
X2496750Y1460000D02*
D03*
X2564250D02*
D03*
X2795251D02*
D03*
X2727751D02*
D03*
D57*
X3685000Y2310000D02*
D03*
X3590000Y2090000D02*
D03*
X3495000Y2310000D02*
D03*
X3635000Y2480000D02*
D03*
X3730000Y2700000D02*
D03*
X3825000Y2480000D02*
D03*
D58*
X3645000Y2963200D02*
D03*
X3395000D02*
D03*
D59*
X1187500Y872500D02*
D03*
X1122500D02*
D03*
X1057500D02*
D03*
X992500D02*
D03*
X927500D02*
D03*
X862500D02*
D03*
X797500D02*
D03*
X732500D02*
D03*
X1187500Y307500D02*
D03*
X1122500D02*
D03*
X1057500D02*
D03*
X992500D02*
D03*
X927500D02*
D03*
X862500D02*
D03*
X797500D02*
D03*
X732500D02*
D03*
D60*
X953950Y130000D02*
D03*
X916450D02*
D03*
X588750Y980000D02*
D03*
X626250D02*
D03*
X3466251Y463099D02*
D03*
X3428751D02*
D03*
X3691250D02*
D03*
X3728751D02*
D03*
X3238750Y1430000D02*
D03*
X3201250D02*
D03*
X2511750Y1460000D02*
D03*
X2549250D02*
D03*
X2780251D02*
D03*
X2742751D02*
D03*
D61*
X955200Y130000D02*
D03*
X915200D02*
D03*
X587500Y980000D02*
D03*
X627500D02*
D03*
X3467501Y463099D02*
D03*
X3427500D02*
D03*
X3690001D02*
D03*
X3730001D02*
D03*
X3240000Y1430000D02*
D03*
X3200000D02*
D03*
X2510500Y1460000D02*
D03*
X2550500D02*
D03*
X2781501D02*
D03*
X2741500D02*
D03*
D62*
X952700Y130000D02*
D03*
X917700D02*
D03*
X590000Y980000D02*
D03*
X625000D02*
D03*
X3465001Y463099D02*
D03*
X3430000D02*
D03*
X3692501D02*
D03*
X3727501D02*
D03*
X3237500Y1430000D02*
D03*
X3202500D02*
D03*
X2513000Y1460000D02*
D03*
X2548000D02*
D03*
X2779001D02*
D03*
X2744000D02*
D03*
D63*
X956450Y130000D02*
D03*
X913950D02*
D03*
X586250Y980000D02*
D03*
X628750D02*
D03*
X3468750Y463099D02*
D03*
X3426250D02*
D03*
X3688751D02*
D03*
X3731251D02*
D03*
X3241250Y1430000D02*
D03*
X3198750D02*
D03*
X2509250Y1460000D02*
D03*
X2551750D02*
D03*
X2782751D02*
D03*
X2740251D02*
D03*
D64*
X957700Y130000D02*
D03*
X912700D02*
D03*
X585000Y980000D02*
D03*
X630000D02*
D03*
X3470001Y463099D02*
D03*
X3425000D02*
D03*
X3687501D02*
D03*
X3732501D02*
D03*
X3242500Y1430000D02*
D03*
X3197500D02*
D03*
X2508000Y1460000D02*
D03*
X2553000D02*
D03*
X2784001D02*
D03*
X2739000D02*
D03*
D65*
X967700Y130000D02*
D03*
X902700D02*
D03*
X575000Y980000D02*
D03*
X640000D02*
D03*
X3480000Y463099D02*
D03*
X3415001D02*
D03*
X3677501D02*
D03*
X3742501D02*
D03*
X3252500Y1430000D02*
D03*
X3187500D02*
D03*
X2498000Y1460000D02*
D03*
X2563000D02*
D03*
X2794000D02*
D03*
X2729001D02*
D03*
D66*
X958950Y130000D02*
D03*
X911450D02*
D03*
X583750Y980000D02*
D03*
X631250D02*
D03*
X3471251Y463099D02*
D03*
X3423750D02*
D03*
X3686251D02*
D03*
X3733751D02*
D03*
X3243750Y1430000D02*
D03*
X3196250D02*
D03*
X2506750Y1460000D02*
D03*
X2554250D02*
D03*
X2785251D02*
D03*
X2737750D02*
D03*
D67*
X960200Y130000D02*
D03*
X910200D02*
D03*
X582500Y980000D02*
D03*
X632500D02*
D03*
X3472501Y463099D02*
D03*
X3422501D02*
D03*
X3685001D02*
D03*
X3735000D02*
D03*
X3245000Y1430000D02*
D03*
X3195000D02*
D03*
X2505500Y1460000D02*
D03*
X2555500D02*
D03*
X2786501D02*
D03*
X2736501D02*
D03*
D68*
X961450Y130000D02*
D03*
X908950D02*
D03*
X581250Y980000D02*
D03*
X633750D02*
D03*
X3473750Y463099D02*
D03*
X3421251D02*
D03*
X3683751D02*
D03*
X3736251D02*
D03*
X3246250Y1430000D02*
D03*
X3193750D02*
D03*
X2504250Y1460000D02*
D03*
X2556750D02*
D03*
X2787750D02*
D03*
X2735251D02*
D03*
D69*
X962700Y130000D02*
D03*
X907700D02*
D03*
X580000Y980000D02*
D03*
X635000D02*
D03*
X3475001Y463099D02*
D03*
X3420001D02*
D03*
X3682500D02*
D03*
X3737501D02*
D03*
X3247500Y1430000D02*
D03*
X3192500D02*
D03*
X2503000Y1460000D02*
D03*
X2558000D02*
D03*
X2789001D02*
D03*
X2734001D02*
D03*
D70*
X963950Y130000D02*
D03*
X906450D02*
D03*
X578750Y980000D02*
D03*
X636250D02*
D03*
X3476250Y463099D02*
D03*
X3418751D02*
D03*
X3681251D02*
D03*
X3738751D02*
D03*
X3248750Y1430000D02*
D03*
X3191250D02*
D03*
X2501750Y1460000D02*
D03*
X2559250D02*
D03*
X2790250D02*
D03*
X2732751D02*
D03*
D71*
X965200Y130000D02*
D03*
X905200D02*
D03*
X577500Y980000D02*
D03*
X637500D02*
D03*
X3477500Y463099D02*
D03*
X3417501D02*
D03*
X3680001D02*
D03*
X3740001D02*
D03*
X3250000Y1430000D02*
D03*
X3190000D02*
D03*
X2500500Y1460000D02*
D03*
X2560500D02*
D03*
X2791500D02*
D03*
X2731501D02*
D03*
D72*
X965950Y130000D02*
D03*
X904450D02*
D03*
X576750Y980000D02*
D03*
X638250D02*
D03*
X3478250Y463099D02*
D03*
X3416751D02*
D03*
X3679251D02*
D03*
X3740751D02*
D03*
X3250750Y1430000D02*
D03*
X3189250D02*
D03*
X2499750Y1460000D02*
D03*
X2561250D02*
D03*
X2792250D02*
D03*
X2730751D02*
D03*
D73*
X966450Y130000D02*
D03*
X903950D02*
D03*
X576250Y980000D02*
D03*
X638750D02*
D03*
X3478750Y463099D02*
D03*
X3416251D02*
D03*
X3678751D02*
D03*
X3741250D02*
D03*
X3251250Y1430000D02*
D03*
X3188750D02*
D03*
X2499250Y1460000D02*
D03*
X2561750D02*
D03*
X2792751D02*
D03*
X2730251D02*
D03*
D74*
X967200Y130000D02*
D03*
X903201D02*
D03*
X575500Y980000D02*
D03*
X639500D02*
D03*
X3479501Y463099D02*
D03*
X3415501D02*
D03*
X3678001D02*
D03*
X3742001D02*
D03*
X3252000Y1430000D02*
D03*
X3188000D02*
D03*
X2498500Y1460000D02*
D03*
X2562500D02*
D03*
X2793501D02*
D03*
X2729501D02*
D03*
D75*
X968700Y130000D02*
D03*
X901700D02*
D03*
X574000Y980000D02*
D03*
X641000D02*
D03*
X3481001Y463099D02*
D03*
X3414000D02*
D03*
X3676501D02*
D03*
X3743501D02*
D03*
X3253500Y1430000D02*
D03*
X3186500D02*
D03*
X2497000Y1460000D02*
D03*
X2564000D02*
D03*
X2795001D02*
D03*
X2728000D02*
D03*
D76*
X968200Y130000D02*
D03*
X902200D02*
D03*
X574500Y980000D02*
D03*
X640500D02*
D03*
X3480501Y463099D02*
D03*
X3414501D02*
D03*
X3677001D02*
D03*
X3743000D02*
D03*
X3253000Y1430000D02*
D03*
X3187000D02*
D03*
X2497500Y1460000D02*
D03*
X2563500D02*
D03*
X2794501D02*
D03*
X2728501D02*
D03*
D77*
X1240000Y1750000D02*
D03*
X1241089Y1660000D02*
D03*
X3232700Y841659D02*
D03*
X732500Y1057501D02*
D03*
X1180000Y1810707D02*
D03*
X510000Y2245000D02*
D03*
Y2150000D02*
D03*
X790000Y2245000D02*
D03*
Y2150000D02*
D03*
X3315000Y423809D02*
D03*
D78*
X1057500Y1743200D02*
D03*
X922500D02*
D03*
D79*
X1303500Y2897200D02*
D03*
Y2770200D02*
D03*
X1303500Y2643200D02*
D03*
X1303500Y2516200D02*
D03*
Y2389200D02*
D03*
X896500D02*
D03*
Y2516200D02*
D03*
X896500Y2643200D02*
D03*
X896500Y2770200D02*
D03*
Y2897200D02*
D03*
D80*
X2200000Y1363200D02*
D03*
X1980000D02*
D03*
Y1203200D02*
D03*
X2200000D02*
D03*
D81*
X1175000Y1343208D02*
D03*
X765000D02*
D03*
X1175000Y1503208D02*
D03*
X765000D02*
D03*
D82*
X3740000Y869002D02*
D03*
D83*
X3644999Y744002D02*
D03*
X3645000Y794002D02*
D03*
Y844002D02*
D03*
Y894002D02*
D03*
X3644999Y944002D02*
D03*
Y994002D02*
D03*
X3834999Y994002D02*
D03*
Y944002D02*
D03*
X3835000Y894002D02*
D03*
Y844002D02*
D03*
X3834999Y794002D02*
D03*
Y744002D02*
D03*
D84*
X4168700Y644900D02*
D03*
X3991300Y895100D02*
D03*
D85*
X4212500Y637500D02*
D03*
X3947500Y902500D02*
D03*
D86*
X4216900Y663750D02*
D03*
X3943100D02*
D03*
Y876250D02*
D03*
X4216900D02*
D03*
D87*
X3991300Y644900D02*
D03*
X4168700Y895100D02*
D03*
D88*
X3947500Y637500D02*
D03*
X4212500Y902500D02*
D03*
D89*
X4080000Y615000D02*
D03*
Y925000D02*
D03*
D90*
X3136500Y600000D02*
D03*
X2783500D02*
D03*
D91*
X3079500Y444250D02*
D03*
Y755750D02*
D03*
X2840500D02*
D03*
Y444250D02*
D03*
D92*
X3124600Y460900D02*
D03*
X2795400Y739100D02*
D03*
D93*
X3093950Y482800D02*
D03*
X2826050Y717200D02*
D03*
D94*
X3093950D02*
D03*
X2826050Y482800D02*
D03*
D95*
X3124600Y739100D02*
D03*
X2795400Y460900D02*
D03*
D96*
X4436750Y1128250D02*
D03*
D97*
X4519000Y1937500D02*
D03*
D98*
X4436750Y2559000D02*
D03*
D99*
X3742600Y1937500D02*
D03*
X3974600D02*
D03*
D100*
X3763600Y2040000D02*
D03*
X3953600D02*
D03*
X3763600Y1835000D02*
D03*
X3953600D02*
D03*
D101*
X3365700Y1937500D02*
D03*
X3284700D02*
D03*
X2997400D02*
D03*
X2916400D02*
D03*
X2650000Y1985900D02*
D03*
X2569000D02*
D03*
D102*
X2490000Y1805400D02*
D03*
Y1886400D02*
D03*
D113*
X4032600Y2725604D02*
D03*
X3280008Y226800D02*
D03*
X3026009D02*
D03*
X2772008D02*
D03*
X2426000D02*
D03*
X2777000Y2928200D02*
D03*
X3534008Y3273200D02*
D03*
X4150000Y1597000D02*
D03*
X1803992Y226800D02*
D03*
X973000Y3273200D02*
D03*
X1227000D02*
D03*
X1481000D02*
D03*
X2934000D02*
D03*
X1826000Y3273208D02*
D03*
X2079992Y3273200D02*
D03*
D114*
X4032600Y2471604D02*
D03*
X4150000Y1343000D02*
D03*
D115*
X3534008Y226800D02*
D03*
X2172000D02*
D03*
X2523000Y2928200D02*
D03*
X3280008Y3273200D02*
D03*
X1549992Y226800D02*
D03*
X719000Y3273200D02*
D03*
X2680000D02*
D03*
X2333992D02*
D03*
D116*
X280000Y280000D02*
D03*
Y3220000D02*
D03*
X4030000Y280000D02*
D03*
Y3220000D02*
D03*
%TF.MD5,7eb7ad7613ecdff05a3bb4ae1554ffdc*%
M02*
